{
	"name": "SuggestedTitles",
	"author": [
		"[http://mediawiki.org/wiki/User:MarkAHershberger Mark A. Hershberger]"
	],
	"url": "https://www.mediawiki.org/wiki/Extension:SuggestedTitles",
	"descriptionmsg": "suggestedtitles-desc",
	"license-name": "GPL-3.0-or-later",
	"type": "other",
	"requires": {
		"MediaWiki": ">= 1.27.0"
	},
	"AutoloadClasses": {
		"MediaWiki\\Extension\\SuggestedTitles\\Hooks": "includes/Hooks.php",
		"MediaWiki\\Extension\\SuggestedTitles\\Suggestion": "includes/Suggestion.php"
	},
	"Hooks": {
		"BeforeDisplayNoArticleText": "MediaWiki\\Extension\\SuggestedTitles\\Hooks::onBeforeDisplayNoArticleText",
		"GetLocalURL": "MediaWiki\\Extension\\SuggestedTitles\\Hooks::onGetLocalURL",
		"ShowMissingArticle": "MediaWiki\\Extension\\SuggestedTitles\\Hooks::onShowMissingArticle",
		"TitleIsAlwaysKnown": "MediaWiki\\Extension\\SuggestedTitles\\Hooks::onTitleIsAlwaysKnown"
	},
	"MessagesDirs": {
		"SuggestedTitles": [
			"i18n"
		]
	},
	"ResourceFileModulePaths": {
		"localBasePath": "resources",
		"remoteExtPath": "SuggestedTitles/resources"
	},
	"ResourceModules": {
		"ext.suggestedTitles": {
			"dependencies": [],
			"messages": [],
			"styles": [],
			"scripts": []
		}
	},
	"config": {
		"RedirectOnSingle": {
			"description": "Redirect if there is only one suggestion.",
			"value": true
		}
	},
	"manifest_version": 1
}
